EESchema Schematic File Version 4
EELAYER 29 0
EELAYER END
$Descr USLetter 11000 8500
encoding utf-8
Sheet 1 1
Title "PWM Fan Controller"
Date "2019-06-10"
Rev ""
Comp ""
Comment1 ""
Comment2 ""
Comment3 ""
Comment4 ""
$EndDescr
$Comp
L Device:D_Zener D2
U 1 1 5CFB97FD
P 3250 4000
F 0 "D2" V 3204 4079 50  0000 L CNN
F 1 "5.6V" V 3295 4079 50  0000 L CNN
F 2 "Diode_THT:D_DO-41_SOD81_P10.16mm_Horizontal" H 3250 4000 50  0001 C CNN
F 3 "~" H 3250 4000 50  0001 C CNN
	1    3250 4000
	0    1    1    0   
$EndComp
$Comp
L Transistor_BJT:2N2222A Q1
U 1 1 5CFBB54C
P 4100 3600
F 0 "Q1" H 4291 3646 50  0000 L CNN
F 1 "2N2222A" H 4291 3555 50  0000 L CNN
F 2 "Package_TO_SOT_THT:TO-92_Inline" H 4300 3525 50  0001 L CIN
F 3 "https://www.onsemi.com/pub/Collateral/P2N2222A-D.PDF" H 4100 3600 50  0001 L CNN
	1    4100 3600
	1    0    0    -1  
$EndComp
$Comp
L power:GND #PWR03
U 1 1 5CFBC7C2
P 3250 4300
F 0 "#PWR03" H 3250 4050 50  0001 C CNN
F 1 "GND" H 3255 4127 50  0000 C CNN
F 2 "" H 3250 4300 50  0001 C CNN
F 3 "" H 3250 4300 50  0001 C CNN
	1    3250 4300
	1    0    0    -1  
$EndComp
$Comp
L Device:R_US R1
U 1 1 5CFBD3B0
P 3250 3200
F 0 "R1" H 3318 3246 50  0000 L CNN
F 1 "1K" H 3318 3155 50  0000 L CNN
F 2 "Resistor_THT:R_Axial_DIN0207_L6.3mm_D2.5mm_P10.16mm_Horizontal" V 3290 3190 50  0001 C CNN
F 3 "~" H 3250 3200 50  0001 C CNN
	1    3250 3200
	1    0    0    -1  
$EndComp
Wire Wire Line
	4200 3400 4200 2800
Wire Wire Line
	4200 2800 3250 2800
Wire Wire Line
	3250 3050 3250 2800
Wire Wire Line
	3250 4300 3250 4150
$Comp
L power:GND #PWR04
U 1 1 5CFC72CC
P 3800 4300
F 0 "#PWR04" H 3800 4050 50  0001 C CNN
F 1 "GND" H 3805 4127 50  0000 C CNN
F 2 "" H 3800 4300 50  0001 C CNN
F 3 "" H 3800 4300 50  0001 C CNN
	1    3800 4300
	1    0    0    -1  
$EndComp
Wire Wire Line
	3800 4300 3800 4150
$Comp
L power:GND #PWR08
U 1 1 5CFCA3B8
P 6150 5350
F 0 "#PWR08" H 6150 5100 50  0001 C CNN
F 1 "GND" H 6155 5177 50  0000 C CNN
F 2 "" H 6150 5350 50  0001 C CNN
F 3 "" H 6150 5350 50  0001 C CNN
	1    6150 5350
	1    0    0    -1  
$EndComp
Wire Wire Line
	6150 5350 6150 5250
$Comp
L power:GND #PWR011
U 1 1 5CFCC0E0
P 8250 4650
F 0 "#PWR011" H 8250 4400 50  0001 C CNN
F 1 "GND" H 8255 4477 50  0000 C CNN
F 2 "" H 8250 4650 50  0001 C CNN
F 3 "" H 8250 4650 50  0001 C CNN
	1    8250 4650
	1    0    0    -1  
$EndComp
Wire Wire Line
	8250 4650 8250 4400
$Comp
L Connector:Barrel_Jack J1
U 1 1 5CFCDECD
P 1700 2900
F 0 "J1" H 1757 3225 50  0000 C CNN
F 1 "Barrel_Jack" H 1757 3134 50  0000 C CNN
F 2 "Connector_BarrelJack:BarrelJack_Horizontal" H 1750 2860 50  0001 C CNN
F 3 "~" H 1750 2860 50  0001 C CNN
	1    1700 2900
	1    0    0    -1  
$EndComp
Wire Wire Line
	2000 2800 2050 2800
$Comp
L Device:R_POT_US RV1
U 1 1 5CFD412E
P 7200 4800
F 0 "RV1" H 7132 4754 50  0000 R CNN
F 1 "R_POT_US" H 7132 4845 50  0000 R CNN
F 2 "Potentiometer_THT:Potentiometer_Piher_PC-16_Single_Horizontal" H 7200 4800 50  0001 C CNN
F 3 "~" H 7200 4800 50  0001 C CNN
	1    7200 4800
	-1   0    0    1   
$EndComp
Wire Wire Line
	7200 3900 7200 4650
$Comp
L Device:CP1 C1
U 1 1 5CFDB4C4
P 3800 4000
F 0 "C1" H 3915 4046 50  0000 L CNN
F 1 "10uF" H 3915 3955 50  0000 L CNN
F 2 "Capacitor_THT:CP_Radial_D5.0mm_P2.00mm" H 3800 4000 50  0001 C CNN
F 3 "~" H 3800 4000 50  0001 C CNN
	1    3800 4000
	1    0    0    -1  
$EndComp
Wire Wire Line
	3800 3850 3800 3600
Wire Wire Line
	3800 3600 3900 3600
$Comp
L Switch:SW_DPST_x2 SW1
U 1 1 5CFF091C
P 2350 2800
F 0 "SW1" H 2350 3035 50  0000 C CNN
F 1 "SW_DPST_x2" H 2350 2944 50  0000 C CNN
F 2 "Button_Switch_THT:SW_Slide_1P2T_CK_OS102011MS2Q" H 2350 2800 50  0001 C CNN
F 3 "~" H 2350 2800 50  0001 C CNN
	1    2350 2800
	1    0    0    -1  
$EndComp
$Comp
L Device:C C3
U 1 1 5CFF69FF
P 5250 4150
F 0 "C3" H 5365 4196 50  0000 L CNN
F 1 "100nF" H 5365 4105 50  0000 L CNN
F 2 "Capacitor_THT:C_Disc_D4.3mm_W1.9mm_P5.00mm" H 5288 4000 50  0001 C CNN
F 3 "~" H 5250 4150 50  0001 C CNN
	1    5250 4150
	1    0    0    -1  
$EndComp
$Comp
L power:GND #PWR06
U 1 1 5CFF6EBF
P 5250 4300
F 0 "#PWR06" H 5250 4050 50  0001 C CNN
F 1 "GND" H 5255 4127 50  0000 C CNN
F 2 "" H 5250 4300 50  0001 C CNN
F 3 "" H 5250 4300 50  0001 C CNN
	1    5250 4300
	1    0    0    -1  
$EndComp
$Comp
L MCU_Microchip_ATtiny:ATtiny85-20PU U1
U 1 1 5CFB84B8
P 6150 4650
F 0 "U1" H 5621 4696 50  0000 R CNN
F 1 "ATtiny85-20PU" H 5621 4605 50  0000 R CNN
F 2 "Package_DIP:DIP-8_W7.62mm" H 6150 4650 50  0001 C CIN
F 3 "http://ww1.microchip.com/downloads/en/DeviceDoc/atmel-2586-avr-8-bit-microcontroller-attiny25-attiny45-attiny85_datasheet.pdf" H 6150 4650 50  0001 C CNN
	1    6150 4650
	1    0    0    -1  
$EndComp
Wire Wire Line
	4200 3800 4200 3900
Wire Wire Line
	5250 4000 5250 3900
Connection ~ 5250 3900
Wire Wire Line
	6150 3900 6150 4050
Wire Wire Line
	5250 3900 6150 3900
Wire Wire Line
	6150 3900 7200 3900
Connection ~ 6150 3900
Wire Wire Line
	6850 4800 7050 4800
Wire Wire Line
	8250 3400 8250 4100
$Comp
L Device:R_US R4
U 1 1 5D02BA9D
P 7000 3400
F 0 "R4" V 6795 3400 50  0000 C CNN
F 1 "1K" V 6886 3400 50  0000 C CNN
F 2 "Resistor_THT:R_Axial_DIN0207_L6.3mm_D2.5mm_P10.16mm_Horizontal" V 7040 3390 50  0001 C CNN
F 3 "~" H 7000 3400 50  0001 C CNN
	1    7000 3400
	0    1    1    0   
$EndComp
$Comp
L power:GND #PWR010
U 1 1 5D02B60E
P 7450 3600
F 0 "#PWR010" H 7450 3350 50  0001 C CNN
F 1 "GND" H 7455 3427 50  0000 C CNN
F 2 "" H 7450 3600 50  0001 C CNN
F 3 "" H 7450 3600 50  0001 C CNN
	1    7450 3600
	1    0    0    -1  
$EndComp
$Comp
L Transistor_BJT:2N2222A Q2
U 1 1 5D023BCF
P 7350 3400
F 0 "Q2" H 7541 3446 50  0000 L CNN
F 1 "2N2222A" H 7541 3355 50  0000 L CNN
F 2 "Package_TO_SOT_THT:TO-92_Inline" H 7550 3325 50  0001 L CIN
F 3 "https://www.onsemi.com/pub/Collateral/P2N2222A-D.PDF" H 7350 3400 50  0001 L CNN
	1    7350 3400
	1    0    0    -1  
$EndComp
$Comp
L Device:CP1 C2
U 1 1 5D0326DB
P 4700 4150
F 0 "C2" H 4815 4196 50  0000 L CNN
F 1 "10uF" H 4815 4105 50  0000 L CNN
F 2 "Capacitor_THT:CP_Radial_D5.0mm_P2.00mm" H 4700 4150 50  0001 C CNN
F 3 "~" H 4700 4150 50  0001 C CNN
	1    4700 4150
	1    0    0    -1  
$EndComp
$Comp
L power:GND #PWR05
U 1 1 5D0326D0
P 4700 4300
F 0 "#PWR05" H 4700 4050 50  0001 C CNN
F 1 "GND" H 4705 4127 50  0000 C CNN
F 2 "" H 4700 4300 50  0001 C CNN
F 3 "" H 4700 4300 50  0001 C CNN
	1    4700 4300
	1    0    0    -1  
$EndComp
Wire Wire Line
	4700 4000 4700 3900
Connection ~ 4700 3900
Wire Wire Line
	4700 3900 5250 3900
Wire Wire Line
	2000 3000 2100 3000
$Comp
L power:GND #PWR02
U 1 1 5D045CC0
P 2100 3200
F 0 "#PWR02" H 2100 2950 50  0001 C CNN
F 1 "GND" H 2105 3027 50  0000 C CNN
F 2 "" H 2100 3200 50  0001 C CNN
F 3 "" H 2100 3200 50  0001 C CNN
	1    2100 3200
	1    0    0    -1  
$EndComp
Wire Wire Line
	3100 2800 3250 2800
NoConn ~ 6750 4850
NoConn ~ 6750 4750
Connection ~ 3250 2800
$Comp
L power:GND #PWR07
U 1 1 5D05DD1A
P 5450 5350
F 0 "#PWR07" H 5450 5100 50  0001 C CNN
F 1 "GND" H 5455 5177 50  0000 C CNN
F 2 "" H 5450 5350 50  0001 C CNN
F 3 "" H 5450 5350 50  0001 C CNN
	1    5450 5350
	1    0    0    -1  
$EndComp
$Comp
L Device:R_US R3
U 1 1 5D061A4F
P 5150 5100
F 0 "R3" V 5355 5100 50  0000 C CNN
F 1 "330" V 5264 5100 50  0000 C CNN
F 2 "Resistor_THT:R_Axial_DIN0207_L6.3mm_D2.5mm_P10.16mm_Horizontal" V 5190 5090 50  0001 C CNN
F 3 "~" H 5150 5100 50  0001 C CNN
	1    5150 5100
	0    -1   -1   0   
$EndComp
Wire Wire Line
	5300 5100 5450 5100
Wire Wire Line
	5450 5100 5450 5350
Wire Wire Line
	2550 2800 2800 2800
Wire Wire Line
	8250 3000 8250 2800
Wire Wire Line
	8250 2800 7800 2800
Connection ~ 4200 2800
Wire Wire Line
	6750 4450 6850 4450
Wire Wire Line
	6850 4450 6850 3400
NoConn ~ 6750 4350
Wire Wire Line
	6750 4650 6850 4650
Wire Wire Line
	6850 4650 6850 4800
NoConn ~ 6750 4550
$Comp
L Connector_Generic:Conn_01x02 J2
U 1 1 5D1250D5
P 8450 4200
F 0 "J2" H 8530 4192 50  0000 L CNN
F 1 "Conn_01x02" H 8530 4101 50  0000 L CNN
F 2 "Connector_PinHeader_2.54mm:PinHeader_1x02_P2.54mm_Horizontal" H 8450 4200 50  0001 C CNN
F 3 "~" H 8450 4200 50  0001 C CNN
	1    8450 4200
	1    0    0    -1  
$EndComp
$Comp
L Device:R_US R5
U 1 1 5D0270F0
P 7800 3000
F 0 "R5" H 7732 2954 50  0000 R CNN
F 1 "10K" H 7732 3045 50  0000 R CNN
F 2 "Resistor_THT:R_Axial_DIN0207_L6.3mm_D2.5mm_P10.16mm_Horizontal" V 7840 2990 50  0001 C CNN
F 3 "~" H 7800 3000 50  0001 C CNN
	1    7800 3000
	-1   0    0    1   
$EndComp
Wire Wire Line
	7450 3200 7800 3200
Wire Wire Line
	7800 3150 7800 3200
Connection ~ 7800 3200
Wire Wire Line
	7800 3200 7950 3200
Wire Wire Line
	7800 2850 7800 2800
Connection ~ 7800 2800
Wire Wire Line
	7800 2800 4200 2800
Wire Wire Line
	7850 4100 8250 4100
Connection ~ 8250 4100
Wire Wire Line
	8250 4100 8250 4200
Wire Wire Line
	7850 4400 8250 4400
Connection ~ 8250 4400
Wire Wire Line
	8250 4400 8250 4300
$Comp
L power:+12V #PWR01
U 1 1 5D13DD0D
P 2050 2300
F 0 "#PWR01" H 2050 2150 50  0001 C CNN
F 1 "+12V" H 2065 2473 50  0000 C CNN
F 2 "" H 2050 2300 50  0001 C CNN
F 3 "" H 2050 2300 50  0001 C CNN
	1    2050 2300
	1    0    0    -1  
$EndComp
Wire Wire Line
	2050 2300 2050 2400
Connection ~ 2050 2800
Wire Wire Line
	2050 2800 2150 2800
Wire Wire Line
	3250 3350 3250 3600
$Comp
L Device:R_US R2
U 1 1 5D14485C
P 3500 3600
F 0 "R2" V 3295 3600 50  0000 C CNN
F 1 "1K" V 3386 3600 50  0000 C CNN
F 2 "Resistor_THT:R_Axial_DIN0207_L6.3mm_D2.5mm_P10.16mm_Horizontal" V 3540 3590 50  0001 C CNN
F 3 "~" H 3500 3600 50  0001 C CNN
	1    3500 3600
	0    1    1    0   
$EndComp
Wire Wire Line
	3350 3600 3250 3600
Connection ~ 3250 3600
Wire Wire Line
	3250 3600 3250 3850
Wire Wire Line
	3650 3600 3800 3600
Connection ~ 3800 3600
Wire Wire Line
	4850 5100 5000 5100
$Comp
L Device:LED D3
U 1 1 5D05AFBF
P 4700 5100
F 0 "D3" H 4693 4845 50  0000 C CNN
F 1 "LED" H 4693 4936 50  0000 C CNN
F 2 "LED_THT:LED_D5.0mm" H 4700 5100 50  0001 C CNN
F 3 "~" H 4700 5100 50  0001 C CNN
	1    4700 5100
	-1   0    0    1   
$EndComp
Wire Wire Line
	4450 5100 4550 5100
Wire Wire Line
	4450 3900 4700 3900
Connection ~ 4450 3900
Wire Wire Line
	4450 3900 4450 5100
Wire Wire Line
	4200 3900 4450 3900
Wire Wire Line
	7200 5100 7200 4950
$Comp
L power:GND #PWR09
U 1 1 5CFD56A2
P 7200 5100
F 0 "#PWR09" H 7200 4850 50  0001 C CNN
F 1 "GND" H 7205 4927 50  0000 C CNN
F 2 "" H 7200 5100 50  0001 C CNN
F 3 "" H 7200 5100 50  0001 C CNN
	1    7200 5100
	1    0    0    -1  
$EndComp
$Comp
L Transistor_FET:FQP27P06 Q3
U 1 1 5D15E5A9
P 8150 3200
F 0 "Q3" H 8356 3154 50  0000 L CNN
F 1 "FQP27P06" H 8356 3245 50  0000 L CNN
F 2 "Package_TO_SOT_THT:TO-220-3_Vertical" H 8350 3125 50  0001 L CIN
F 3 "https://www.sparkfun.com/datasheets/Components/General/FQP27P06.pdf" H 8150 3200 50  0001 L CNN
	1    8150 3200
	1    0    0    1   
$EndComp
$Comp
L power:PWR_FLAG #FLG01
U 1 1 5D18B7B4
P 2050 2400
F 0 "#FLG01" H 2050 2475 50  0001 C CNN
F 1 "PWR_FLAG" V 2050 2528 50  0000 L CNN
F 2 "" H 2050 2400 50  0001 C CNN
F 3 "~" H 2050 2400 50  0001 C CNN
	1    2050 2400
	0    1    1    0   
$EndComp
Connection ~ 2050 2400
Wire Wire Line
	2050 2400 2050 2800
Wire Wire Line
	2100 3000 2100 3200
$Comp
L Diode:1N4001 D1
U 1 1 5D1AA571
P 2950 2800
F 0 "D1" H 2950 3016 50  0000 C CNN
F 1 "1N4001" H 2950 2925 50  0000 C CNN
F 2 "Diode_THT:D_DO-41_SOD81_P10.16mm_Horizontal" H 2950 2625 50  0001 C CNN
F 3 "http://www.vishay.com/docs/88503/1n4001.pdf" H 2950 2800 50  0001 C CNN
	1    2950 2800
	-1   0    0    -1  
$EndComp
$Comp
L Diode:1N4001 D4
U 1 1 5D1AE989
P 7850 4250
F 0 "D4" V 7804 4171 50  0000 R CNN
F 1 "1N4001" V 7895 4171 50  0000 R CNN
F 2 "Diode_THT:D_DO-41_SOD81_P10.16mm_Horizontal" H 7850 4075 50  0001 C CNN
F 3 "http://www.vishay.com/docs/88503/1n4001.pdf" H 7850 4250 50  0001 C CNN
	1    7850 4250
	0    -1   1    0   
$EndComp
$EndSCHEMATC
